{
    "data": {
        "event": {
            "id": 826753,
            "createdAt": 1670188187,
            "startAt": 1676992500,
            "updatedAt": 1677951087,
            "name": "Main Event",
            "slug": "tournament/rlcs-2022-23-winter-invitational-mena/event/main-event",
            "state": "COMPLETED",
            "tournament": {
                "id": 503199,
                "slug": "tournament/rlcs-2022-23-winter-invitational-mena",
                "name": "RLCS 2022-23 - Winter Invitational - MENA"
            },
            "sets": {
                "pageInfo": {
                    "total": 37
                },
                "nodes": [
                    {
                        "id": 57636806,
                        "createdAt": 1677780549,
                        "startAt": 1677949200,
                        "startedAt": 1677949075,
                        "completedAt": 1677951086,
                        "state": 3,
                        "winnerId": 12416359,
                        "displayScore": "Team Falcons 1 - RuleOneGG 4",
                        "slots": [
                            {
                                "entrant": {
                                    "id": 12416357,
                                    "name": "Team Falcons"
                                },
                                "slotIndex": 0
                            },
                            {
                                "entrant": {
                                    "id": 12416359,
                                    "name": "RuleOneGG"
                                },
                                "slotIndex": 1
                            }
                        ]
                    },
                    {
                        "id": 57636804,
                        "createdAt": 1677780549,
                        "startAt": 1677942000,
                        "startedAt": 1677945345,
                        "completedAt": 1677947354,
                        "state": 3,
                        "winnerId": 12416357,
                        "displayScore": "Team Falcons 4 - Cola 0",
                        "slots": [
                            {
                                "entrant": {
                                    "id": 12416357,
                                    "name": "Team Falcons"
                                },
                                "slotIndex": 0
                            },
                            {
                                "entrant": {
                                    "id": 12416365,
                                    "name": "Cola"
                                },
                                "slotIndex": 1
                            }
                        ]
                    },
                    {
                        "id": 57636805,
                        "createdAt": 1677780549,
                        "startAt": 1677942000,
                        "startedAt": 1677941907,
                        "completedAt": 1677944610,
                        "state": 3,
                        "winnerId": 12416359,
                        "displayScore": "RuleOneGG 4 - Vision Esport 0",
                        "slots": [
                            {
                                "entrant": {
                                    "id": 12416359,
                                    "name": "RuleOneGG"
                                },
                                "slotIndex": 0
                            },
                            {
                                "entrant": {
                                    "id": 12416361,
                                    "name": "Vision Esport"
                                },
                                "slotIndex": 1
                            }
                        ]
                    },
                    {
                        "id": 57636800,
                        "createdAt": 1677780549,
                        "startAt": 1677855600,
                        "startedAt": 1677867032,
                        "completedAt": 1677870180,
                        "state": 3,
                        "winnerId": 12416357,
                        "displayScore": "Team Falcons 4 - Arrows 1",
                        "slots": [
                            {
                                "entrant": {
                                    "id": 12416357,
                                    "name": "Team Falcons"
                                },
                                "slotIndex": 0
                            },
                            {
                                "entrant": {
                                    "id": 12416368,
                                    "name": "Arrows"
                                },
                                "slotIndex": 1
                            }
                        ]
                    },
                    {
                        "id": 57636801,
                        "createdAt": 1677780549,
                        "startAt": 1677855600,
                        "startedAt": 1677863124,
                        "completedAt": 1677866740,
                        "state": 3,
                        "winnerId": 12416365,
                        "displayScore": "Twisted Minds 3 - Cola 4",
                        "slots": [
                            {
                                "entrant": {
                                    "id": 12416362,
                                    "name": "Twisted Minds"
                                },
                                "slotIndex": 0
                            },
                            {
                                "entrant": {
                                    "id": 12416365,
                                    "name": "Cola"
                                },
                                "slotIndex": 1
                            }
                        ]
                    },
                    {
                        "id": 57636802,
                        "createdAt": 1677780549,
                        "startAt": 1677855600,
                        "startedAt": 1677858340,
                        "completedAt": 1677863398,
                        "state": 3,
                        "winnerId": 12416359,
                        "displayScore": "RuleOneGG 4 - Miracles 1",
                        "slots": [
                            {
                                "entrant": {
                                    "id": 12416359,
                                    "name": "RuleOneGG"
                                },
                                "slotIndex": 0
                            },
                            {
                                "entrant": {
                                    "id": 12416374,
                                    "name": "Miracles"
                                },
                                "slotIndex": 1
                            }
                        ]
                    },
                    {
                        "id": 57636803,
                        "createdAt": 1677780549,
                        "startAt": 1677855600,
                        "startedAt": 1677855878,
                        "completedAt": 1677858271,
                        "state": 3,
                        "winnerId": 12416361,
                        "displayScore": "Vision Esport 4 - Sky force 1",
                        "slots": [
                            {
                                "entrant": {
                                    "id": 12416361,
                                    "name": "Vision Esport"
                                },
                                "slotIndex": 0
                            },
                            {
                                "entrant": {
                                    "id": 12416376,
                                    "name": "Sky force"
                                },
                                "slotIndex": 1
                            }
                        ]
                    },
                    {
                        "id": 57636793,
                        "createdAt": 1677780549,
                        "startAt": 1677780600,
                        "startedAt": 1677780881,
                        "completedAt": 1677782172,
                        "state": 3,
                        "winnerId": 12416368,
                        "displayScore": "Arrows 3 - EMPTY 0",
                        "slots": [
                            {
                                "entrant": {
                                    "id": 12416368,
                                    "name": "Arrows"
                                },
                                "slotIndex": 0
                            },
                            {
                                "entrant": {
                                    "id": 12416366,
                                    "name": "EMPTY"
                                },
                                "slotIndex": 1
                            }
                        ]
                    },
                    {
                        "id": 57636795,
                        "createdAt": 1677780549,
                        "startAt": 1677780600,
                        "startedAt": 1677781107,
                        "completedAt": 1677783531,
                        "state": 3,
                        "winnerId": 12416365,
                        "displayScore": "Cola 3 - Outsiders 2",
                        "slots": [
                            {
                                "entrant": {
                                    "id": 12416365,
                                    "name": "Cola"
                                },
                                "slotIndex": 0
                            },
                            {
                                "entrant": {
                                    "id": 12416367,
                                    "name": "Outsiders"
                                },
                                "slotIndex": 1
                            }
                        ]
                    },
                    {
                        "id": 57636797,
                        "createdAt": 1677780549,
                        "startAt": 1677780600,
                        "startedAt": 1677781122,
                        "completedAt": 1677783443,
                        "state": 3,
                        "winnerId": 12416374,
                        "displayScore": "Miracles 3 - Nightmare 2",
                        "slots": [
                            {
                                "entrant": {
                                    "id": 12416374,
                                    "name": "Miracles"
                                },
                                "slotIndex": 0
                            },
                            {
                                "entrant": {
                                    "id": 12416370,
                                    "name": "Nightmare"
                                },
                                "slotIndex": 1
                            }
                        ]
                    },
                    {
                        "id": 57636799,
                        "createdAt": 1677780549,
                        "startAt": 1677780600,
                        "startedAt": 1677780664,
                        "completedAt": 1677782851,
                        "state": 3,
                        "winnerId": 12416376,
                        "displayScore": "Mountain 1 - Sky force 3",
                        "slots": [
                            {
                                "entrant": {
                                    "id": 12416369,
                                    "name": "Mountain"
                                },
                                "slotIndex": 0
                            },
                            {
                                "entrant": {
                                    "id": 12416376,
                                    "name": "Sky force"
                                },
                                "slotIndex": 1
                            }
                        ]
                    },
                    {
                        "id": 57634952,
                        "createdAt": 1677769354,
                        "startAt": null,
                        "startedAt": 1677776721,
                        "completedAt": 1677779314,
                        "state": 3,
                        "winnerId": 12416362,
                        "displayScore": "Twisted Minds 3 - EMPTY 1",
                        "slots": [
                            {
                                "entrant": {
                                    "id": 12416362,
                                    "name": "Twisted Minds"
                                },
                                "slotIndex": 0
                            },
                            {
                                "entrant": {
                                    "id": 12416366,
                                    "name": "EMPTY"
                                },
                                "slotIndex": 1
                            }
                        ]
                    },
                    {
                        "id": 57634946,
                        "createdAt": 1677769347,
                        "startAt": null,
                        "startedAt": 1677776536,
                        "completedAt": 1677778273,
                        "state": 3,
                        "winnerId": 12416361,
                        "displayScore": "Vision Esport 3 - Cola 1",
                        "slots": [
                            {
                                "entrant": {
                                    "id": 12416361,
                                    "name": "Vision Esport"
                                },
                                "slotIndex": 0
                            },
                            {
                                "entrant": {
                                    "id": 12416365,
                                    "name": "Cola"
                                },
                                "slotIndex": 1
                            }
                        ]
                    },
                    {
                        "id": 57634934,
                        "createdAt": 1677769327,
                        "startAt": null,
                        "startedAt": 1677776469,
                        "completedAt": 1677779372,
                        "state": 3,
                        "winnerId": 12416357,
                        "displayScore": "Team Falcons 3 - Outsiders 1",
                        "slots": [
                            {
                                "entrant": {
                                    "id": 12416357,
                                    "name": "Team Falcons"
                                },
                                "slotIndex": 0
                            },
                            {
                                "entrant": {
                                    "id": 12416367,
                                    "name": "Outsiders"
                                },
                                "slotIndex": 1
                            }
                        ]
                    },
                    {
                        "id": 57634940,
                        "createdAt": 1677769340,
                        "startAt": null,
                        "startedAt": 1677775534,
                        "completedAt": 1677780224,
                        "state": 3,
                        "winnerId": 12416359,
                        "displayScore": "RuleOneGG 3 - Arrows 1",
                        "slots": [
                            {
                                "entrant": {
                                    "id": 12416359,
                                    "name": "RuleOneGG"
                                },
                                "slotIndex": 0
                            },
                            {
                                "entrant": {
                                    "id": 12416368,
                                    "name": "Arrows"
                                },
                                "slotIndex": 1
                            }
                        ]
                    },
                    {
                        "id": 57634947,
                        "createdAt": 1677769347,
                        "startAt": null,
                        "startedAt": 1677778668,
                        "completedAt": 1677779641,
                        "state": 3,
                        "winnerId": 12416370,
                        "displayScore": "Nightmare 3 - Never give up 0",
                        "slots": [
                            {
                                "entrant": {
                                    "id": 12416370,
                                    "name": "Nightmare"
                                },
                                "slotIndex": 0
                            },
                            {
                                "entrant": {
                                    "id": 12416080,
                                    "name": "Never give up"
                                },
                                "slotIndex": 1
                            }
                        ]
                    },
                    {
                        "id": 57634935,
                        "createdAt": 1677769327,
                        "startAt": null,
                        "startedAt": 1677777052,
                        "completedAt": 1677779885,
                        "state": 3,
                        "winnerId": 12416374,
                        "displayScore": "Miracles 3 - In the House 1",
                        "slots": [
                            {
                                "entrant": {
                                    "id": 12416374,
                                    "name": "Miracles"
                                },
                                "slotIndex": 0
                            },
                            {
                                "entrant": {
                                    "id": 12416377,
                                    "name": "In the House"
                                },
                                "slotIndex": 1
                            }
                        ]
                    },
                    {
                        "id": 57634953,
                        "createdAt": 1677769354,
                        "startAt": null,
                        "startedAt": 1677776449,
                        "completedAt": 1677777854,
                        "state": 3,
                        "winnerId": 12416369,
                        "displayScore": "Mountain 3 - Rx 0",
                        "slots": [
                            {
                                "entrant": {
                                    "id": 12416369,
                                    "name": "Mountain"
                                },
                                "slotIndex": 0
                            },
                            {
                                "entrant": {
                                    "id": 12416379,
                                    "name": "Rx"
                                },
                                "slotIndex": 1
                            }
                        ]
                    },
                    {
                        "id": 57634941,
                        "createdAt": 1677769340,
                        "startAt": null,
                        "startedAt": null,
                        "completedAt": 1677777030,
                        "state": 3,
                        "winnerId": 12416376,
                        "displayScore": "DQ",
                        "slots": [
                            {
                                "entrant": {
                                    "id": 12416373,
                                    "name": "T2K"
                                },
                                "slotIndex": 0
                            },
                            {
                                "entrant": {
                                    "id": 12416376,
                                    "name": "Sky force"
                                },
                                "slotIndex": 1
                            }
                        ]
                    },
                    {
                        "id": 57634932,
                        "createdAt": 1677769327,
                        "startAt": null,
                        "startedAt": 1677772891,
                        "completedAt": 1677774296,
                        "state": 3,
                        "winnerId": 12416357,
                        "displayScore": "Team Falcons 3 - Miracles 0",
                        "slots": [
                            {
                                "entrant": {
                                    "id": 12416357,
                                    "name": "Team Falcons"
                                },
                                "slotIndex": 0
                            },
                            {
                                "entrant": {
                                    "id": 12416374,
                                    "name": "Miracles"
                                },
                                "slotIndex": 1
                            }
                        ]
                    },
                    {
                        "id": 57634944,
                        "createdAt": 1677769347,
                        "startAt": null,
                        "startedAt": 1677772683,
                        "completedAt": 1677774025,
                        "state": 3,
                        "winnerId": 12416361,
                        "displayScore": "Vision Esport 3 - Nightmare 1",
                        "slots": [
                            {
                                "entrant": {
                                    "id": 12416361,
                                    "name": "Vision Esport"
                                },
                                "slotIndex": 0
                            },
                            {
                                "entrant": {
                                    "id": 12416370,
                                    "name": "Nightmare"
                                },
                                "slotIndex": 1
                            }
                        ]
                    },
                    {
                        "id": 57634950,
                        "createdAt": 1677769354,
                        "startAt": null,
                        "startedAt": 1677772468,
                        "completedAt": 1677774389,
                        "state": 3,
                        "winnerId": 12416362,
                        "displayScore": "Twisted Minds 3 - Mountain 1",
                        "slots": [
                            {
                                "entrant": {
                                    "id": 12416362,
                                    "name": "Twisted Minds"
                                },
                                "slotIndex": 0
                            },
                            {
                                "entrant": {
                                    "id": 12416369,
                                    "name": "Mountain"
                                },
                                "slotIndex": 1
                            }
                        ]
                    },
                    {
                        "id": 57634938,
                        "createdAt": 1677769340,
                        "startAt": null,
                        "startedAt": null,
                        "completedAt": 1677772481,
                        "state": 3,
                        "winnerId": 12416359,
                        "displayScore": "DQ",
                        "slots": [
                            {
                                "entrant": {
                                    "id": 12416359,
                                    "name": "RuleOneGG"
                                },
                                "slotIndex": 0
                            },
                            {
                                "entrant": {
                                    "id": 12416373,
                                    "name": "T2K"
                                },
                                "slotIndex": 1
                            }
                        ]
                    },
                    {
                        "id": 57634933,
                        "createdAt": 1677769327,
                        "startAt": null,
                        "startedAt": 1677774887,
                        "completedAt": 1677777039,
                        "state": 3,
                        "winnerId": 12416377,
                        "displayScore": "In the House 3 - Outsiders 2",
                        "slots": [
                            {
                                "entrant": {
                                    "id": 12416377,
                                    "name": "In the House"
                                },
                                "slotIndex": 0
                            },
                            {
                                "entrant": {
                                    "id": 12416367,
                                    "name": "Outsiders"
                                },
                                "slotIndex": 1
                            }
                        ]
                    },
                    {
                        "id": 57634939,
                        "createdAt": 1677769340,
                        "startAt": null,
                        "startedAt": 1677772943,
                        "completedAt": 1677774324,
                        "state": 3,
                        "winnerId": 12416368,
                        "displayScore": "Sky force 0 - Arrows 3",
                        "slots": [
                            {
                                "entrant": {
                                    "id": 12416376,
                                    "name": "Sky force"
                                },
                                "slotIndex": 0
                            },
                            {
                                "entrant": {
                                    "id": 12416368,
                                    "name": "Arrows"
                                },
                                "slotIndex": 1
                            }
                        ]
                    },
                    {
                        "id": 57634945,
                        "createdAt": 1677769347,
                        "startAt": null,
                        "startedAt": 1677772683,
                        "completedAt": 1677774795,
                        "state": 3,
                        "winnerId": 12416365,
                        "displayScore": "Never give up 0 - Cola 3",
                        "slots": [
                            {
                                "entrant": {
                                    "id": 12416080,
                                    "name": "Never give up"
                                },
                                "slotIndex": 0
                            },
                            {
                                "entrant": {
                                    "id": 12416365,
                                    "name": "Cola"
                                },
                                "slotIndex": 1
                            }
                        ]
                    },
                    {
                        "id": 57634951,
                        "createdAt": 1677769354,
                        "startAt": null,
                        "startedAt": 1677772449,
                        "completedAt": 1677774095,
                        "state": 3,
                        "winnerId": 12416366,
                        "displayScore": "Rx 0 - EMPTY 3",
                        "slots": [
                            {
                                "entrant": {
                                    "id": 12416379,
                                    "name": "Rx"
                                },
                                "slotIndex": 0
                            },
                            {
                                "entrant": {
                                    "id": 12416366,
                                    "name": "EMPTY"
                                },
                                "slotIndex": 1
                            }
                        ]
                    },
                    {
                        "id": 57634936,
                        "createdAt": 1677769340,
                        "startAt": null,
                        "startedAt": 1677771723,
                        "completedAt": 1677771738,
                        "state": 3,
                        "winnerId": 12416359,
                        "displayScore": "RuleOneGG 3 - Sky force 0",
                        "slots": [
                            {
                                "entrant": {
                                    "id": 12416359,
                                    "name": "RuleOneGG"
                                },
                                "slotIndex": 0
                            },
                            {
                                "entrant": {
                                    "id": 12416376,
                                    "name": "Sky force"
                                },
                                "slotIndex": 1
                            }
                        ]
                    },
                    {
                        "id": 57634942,
                        "createdAt": 1677769347,
                        "startAt": null,
                        "startedAt": 1677770086,
                        "completedAt": 1677771698,
                        "state": 3,
                        "winnerId": 12416361,
                        "displayScore": "Vision Esport 3 - Never give up 0",
                        "slots": [
                            {
                                "entrant": {
                                    "id": 12416361,
                                    "name": "Vision Esport"
                                },
                                "slotIndex": 0
                            },
                            {
                                "entrant": {
                                    "id": 12416080,
                                    "name": "Never give up"
                                },
                                "slotIndex": 1
                            }
                        ]
                    },
                    {
                        "id": 57634930,
                        "createdAt": 1677769327,
                        "startAt": null,
                        "startedAt": 1677769699,
                        "completedAt": 1677771407,
                        "state": 3,
                        "winnerId": 12416357,
                        "displayScore": "Team Falcons 3 - In the House 0",
                        "slots": [
                            {
                                "entrant": {
                                    "id": 12416357,
                                    "name": "Team Falcons"
                                },
                                "slotIndex": 0
                            },
                            {
                                "entrant": {
                                    "id": 12416377,
                                    "name": "In the House"
                                },
                                "slotIndex": 1
                            }
                        ]
                    },
                    {
                        "id": 57634948,
                        "createdAt": 1677769354,
                        "startAt": null,
                        "startedAt": 1677769676,
                        "completedAt": 1677771123,
                        "state": 3,
                        "winnerId": 12416362,
                        "displayScore": "Twisted Minds 3 - Rx 0",
                        "slots": [
                            {
                                "entrant": {
                                    "id": 12416362,
                                    "name": "Twisted Minds"
                                },
                                "slotIndex": 0
                            },
                            {
                                "entrant": {
                                    "id": 12416379,
                                    "name": "Rx"
                                },
                                "slotIndex": 1
                            }
                        ]
                    },
                    {
                        "id": 57634943,
                        "createdAt": 1677769347,
                        "startAt": null,
                        "startedAt": 1677769611,
                        "completedAt": 1677771301,
                        "state": 3,
                        "winnerId": 12416365,
                        "displayScore": "Cola 3 - Nightmare 1",
                        "slots": [
                            {
                                "entrant": {
                                    "id": 12416365,
                                    "name": "Cola"
                                },
                                "slotIndex": 0
                            },
                            {
                                "entrant": {
                                    "id": 12416370,
                                    "name": "Nightmare"
                                },
                                "slotIndex": 1
                            }
                        ]
                    },
                    {
                        "id": 57634931,
                        "createdAt": 1677769327,
                        "startAt": null,
                        "startedAt": 1677769520,
                        "completedAt": 1677771942,
                        "state": 3,
                        "winnerId": 12416367,
                        "displayScore": "Outsiders 3 - Miracles 2",
                        "slots": [
                            {
                                "entrant": {
                                    "id": 12416367,
                                    "name": "Outsiders"
                                },
                                "slotIndex": 0
                            },
                            {
                                "entrant": {
                                    "id": 12416374,
                                    "name": "Miracles"
                                },
                                "slotIndex": 1
                            }
                        ]
                    },
                    {
                        "id": 57634949,
                        "createdAt": 1677769354,
                        "startAt": null,
                        "startedAt": 1677769391,
                        "completedAt": 1677770959,
                        "state": 3,
                        "winnerId": 12416369,
                        "displayScore": "EMPTY 0 - Mountain 3",
                        "slots": [
                            {
                                "entrant": {
                                    "id": 12416366,
                                    "name": "EMPTY"
                                },
                                "slotIndex": 0
                            },
                            {
                                "entrant": {
                                    "id": 12416369,
                                    "name": "Mountain"
                                },
                                "slotIndex": 1
                            }
                        ]
                    },
                    {
                        "id": 57634937,
                        "createdAt": 1677769340,
                        "startAt": null,
                        "startedAt": null,
                        "completedAt": 1677772429,
                        "state": 3,
                        "winnerId": 12416368,
                        "displayScore": "DQ",
                        "slots": [
                            {
                                "entrant": {
                                    "id": 12416368,
                                    "name": "Arrows"
                                },
                                "slotIndex": 0
                            },
                            {
                                "entrant": {
                                    "id": 12416373,
                                    "name": "T2K"
                                },
                                "slotIndex": 1
                            }
                        ]
                    },
                    {
                        "id": 57292896,
                        "createdAt": 1676989410,
                        "startAt": 1676996100,
                        "startedAt": 1676996156,
                        "completedAt": 1676999343,
                        "state": 3,
                        "winnerId": 12416080,
                        "displayScore": "Team Serene 1 - Never give up 4",
                        "slots": [
                            {
                                "entrant": {
                                    "id": 12416079,
                                    "name": "Team Serene"
                                },
                                "slotIndex": 0
                            },
                            {
                                "entrant": {
                                    "id": 12416080,
                                    "name": "Never give up"
                                },
                                "slotIndex": 1
                            }
                        ]
                    },
                    {
                        "id": 57292895,
                        "createdAt": 1676989410,
                        "startAt": 1676992500,
                        "startedAt": 1676992756,
                        "completedAt": 1676996074,
                        "state": 3,
                        "winnerId": 12416080,
                        "displayScore": "TRIPLE ESPORTS 2 - Never give up 4",
                        "slots": [
                            {
                                "entrant": {
                                    "id": 12416073,
                                    "name": "TRIPLE ESPORTS"
                                },
                                "slotIndex": 0
                            },
                            {
                                "entrant": {
                                    "id": 12416080,
                                    "name": "Never give up"
                                },
                                "slotIndex": 1
                            }
                        ]
                    }
                ]
            }
        }
    },
    "extensions": {
        "cacheControl": {
            "version": 1,
            "hints": [
                {
                    "path": [
                        "event"
                    ],
                    "maxAge": 60,
                    "scope": "PRIVATE"
                }
            ]
        },
        "queryComplexity": 225
    },
    "actionRecords": []
}